{
	"page_title" : "Communication",
	"body_class" : "page-communication",
	"meta_keywords" : "BizCare, Communication, Strategy, Brand, Management, Creative",
	"meta_description" : "Would your business sustain without effective communication strategy?"
}