{
	"page_title" : "Strategic Communications and PR Consultancy firm based in Dhaka, Bangladesh",
	"body_class" : "page-home",
	"meta_description" : "BizCare, a consulting firm based in Dhaka and engaged in three broad areas - Communication, Corporate Responsibility and Human Resource"
}